{
  "builders": [
  {
  "type": "openstack",
  "username": "matthew.simon",
  "provider": "rackspace-us",
  "region": "IAD",
  "ssh_username": "root",
  "image_name": "Test image",
  "source_image": "271e1090-77ad-4400-a1f7-73a922aca8e2",
  "flavor": "5"
  }
  ],
  "provisioners": [
    {
      "execute_command": "echo 'vagrant' | {{.Vars}} sudo -S -E bash '{{.Path}}'",
      "scripts": [
        "scripts/common/ansible.sh"
      ],
      "type": "shell"
    },
    {
      "type": "file",
      "source": "//Users/matthewbsimon/work/autobahn/tools/ansible",
      "destination": "/tmp"
    },    
    { 
      "type": "shell",
      "inline": ["ansible-playbook /tmp/ansible/packer_core.yml --connection=local --sudo -i 'localhost,' -e packing=True"]
    },
    {
      "execute_command": "echo 'vagrant' | {{.Vars}} sudo -S -E bash '{{.Path}}'",
      "scripts": [
        "scripts/rhel/cleanup.sh",
        "scripts/common/minimize.sh"
      ],
      "type": "shell"
    }
  ]
}

